…
## Warning: attributes are not identical across measure variables;
## they will be dropped

## Joining, by = "variable"

df_gathered

## # A tibble: 200 x 5
##    respid variable rating platform  activity
##     <dbl> <chr>     <dbl> <fct>     <fct>   
##  1   1140 q1            3 Instagram post    
##  2   1785 q1            1 Instagram post    
##  3   1708 q1            1 Instagram post    
##  4   1069 q1            5 Instagram post    
##  5   1777 q1            3 Instagram post    
##  6   1943 q1            5 Instagram post    
##  7   1655 q1            3 Instagram post    
##  8   1267 q1            4 Instagram post    
##  9   1699 q1            3 Instagram post    
## 10   1052 q1            4 Instagram post    
## # … with 190 more rows
…
